<?xml version="1.0" encoding="UTF-8"?>
<testsuite name="acco.finalDeliverable.robot.TestRobotRun1" tests="1" skipped="0" failures="1" errors="0" timestamp="2017-02-08T17:06:13" hostname="bzw" time="11.434">
  <properties/>
  <testcase name="testRun1" classname="acco.finalDeliverable.robot.TestRobotRun1" time="11.434">
    <failure message="java.lang.AssertionError: check obstacle" type="java.lang.AssertionError">java.lang.AssertionError: check obstacle
	at org.junit.Assert.fail(Assert.java:93)
	at org.junit.Assert.assertTrue(Assert.java:43)
	at acco.finalDeliverable.robot.TestRobotRun1.testRun1(TestRobotRun1.java:77)
	at sun.reflect.NativeMethodAccessorImpl.invoke0(Native Method)
	at sun.reflect.NativeMethodAccessorImpl.invoke(NativeMethodAccessorImpl.java:62)
	at sun.reflect.DelegatingMethodAccessorImpl.invoke(DelegatingMethodAccessorImpl.java:43)
	at java.lang.reflect.Method.invoke(Method.java:498)
	at org.junit.runners.model.FrameworkMethod$1.runReflectiveCall(FrameworkMethod.java:44)
	at org.junit.internal.runners.model.ReflectiveCallable.run(ReflectiveCallable.java:15)
	at org.junit.runners.model.FrameworkMethod.invokeExplosively(FrameworkMethod.java:41)
	at org.junit.internal.runners.statements.InvokeMethod.evaluate(InvokeMethod.java:20)
	at org.junit.internal.runners.statements.RunBefores.evaluate(RunBefores.java:28)
	at org.junit.internal.runners.statements.RunAfters.evaluate(RunAfters.java:31)
	at org.junit.runners.ParentRunner.runLeaf(ParentRunner.java:274)
	at org.junit.runners.BlockJUnit4ClassRunner.runChild(BlockJUnit4ClassRunner.java:70)
	at org.junit.runners.BlockJUnit4ClassRunner.runChild(BlockJUnit4ClassRunner.java:48)
	at org.junit.runners.ParentRunner$3.run(ParentRunner.java:242)
	at org.junit.runners.ParentRunner$1.schedule(ParentRunner.java:58)
	at org.junit.runners.ParentRunner.runChildren(ParentRunner.java:240)
	at org.junit.runners.ParentRunner.access$000(ParentRunner.java:48)
	at org.junit.runners.ParentRunner$2.evaluate(ParentRunner.java:233)
	at org.junit.runners.ParentRunner.run(ParentRunner.java:303)
	at org.gradle.api.internal.tasks.testing.junit.JUnitTestClassExecuter.runTestClass(JUnitTestClassExecuter.java:105)
	at org.gradle.api.internal.tasks.testing.junit.JUnitTestClassExecuter.execute(JUnitTestClassExecuter.java:56)
	at org.gradle.api.internal.tasks.testing.junit.JUnitTestClassProcessor.processTestClass(JUnitTestClassProcessor.java:64)
	at org.gradle.api.internal.tasks.testing.SuiteTestClassProcessor.processTestClass(SuiteTestClassProcessor.java:50)
	at sun.reflect.NativeMethodAccessorImpl.invoke0(Native Method)
	at sun.reflect.NativeMethodAccessorImpl.invoke(NativeMethodAccessorImpl.java:62)
	at sun.reflect.DelegatingMethodAccessorImpl.invoke(DelegatingMethodAccessorImpl.java:43)
	at java.lang.reflect.Method.invoke(Method.java:498)
	at org.gradle.messaging.dispatch.ReflectionDispatch.dispatch(ReflectionDispatch.java:35)
	at org.gradle.messaging.dispatch.ReflectionDispatch.dispatch(ReflectionDispatch.java:24)
	at org.gradle.messaging.dispatch.ContextClassLoaderDispatch.dispatch(ContextClassLoaderDispatch.java:32)
	at org.gradle.messaging.dispatch.ProxyDispatchAdapter$DispatchingInvocationHandler.invoke(ProxyDispatchAdapter.java:93)
	at com.sun.proxy.$Proxy2.processTestClass(Unknown Source)
	at org.gradle.api.internal.tasks.testing.worker.TestWorker.processTestClass(TestWorker.java:106)
	at sun.reflect.NativeMethodAccessorImpl.invoke0(Native Method)
	at sun.reflect.NativeMethodAccessorImpl.invoke(NativeMethodAccessorImpl.java:62)
	at sun.reflect.DelegatingMethodAccessorImpl.invoke(DelegatingMethodAccessorImpl.java:43)
	at java.lang.reflect.Method.invoke(Method.java:498)
	at org.gradle.messaging.dispatch.ReflectionDispatch.dispatch(ReflectionDispatch.java:35)
	at org.gradle.messaging.dispatch.ReflectionDispatch.dispatch(ReflectionDispatch.java:24)
	at org.gradle.messaging.remote.internal.hub.MessageHub$Handler.run(MessageHub.java:360)
	at org.gradle.internal.concurrent.ExecutorPolicy$CatchAndRecordFailures.onExecute(ExecutorPolicy.java:54)
	at org.gradle.internal.concurrent.StoppableExecutorImpl$1.run(StoppableExecutorImpl.java:40)
	at java.util.concurrent.ThreadPoolExecutor.runWorker(ThreadPoolExecutor.java:1142)
	at java.util.concurrent.ThreadPoolExecutor$Worker.run(ThreadPoolExecutor.java:617)
	at java.lang.Thread.run(Thread.java:745)
</failure>
  </testcase>
  <system-out><![CDATA[SETTING UP JUNIT
	+++ context(robotcontext,localhost,'TCP','7898')
	+++ qactor(qloop,robotcontext,'it.unibo.qloop.MsgHandle_Qloop')
	+++ qactor(qloop_ctrl,robotcontext,'it.unibo.qloop.Qloop')
	ACTIVATING robotcontext ncores=4 port=7898 webDir=null testing=true
	QActorUtils activateAkkaSystem in progress ... robotcontext
	SYSTEM CREATOR=Actor[akka://robotcontext/user/robotcontext#-1219551326]
	================================= robotcontext
	*** QActorUtils evlpa_robotcontext created it.unibo.qactors.platform.EventLoopActor@6a85447b
	*** QActorUtils evlpa_robotcontext created it.unibo.qactors.platform.EventLoopActor@6a85447b
	*** CtxServerAgent CREATED on port 7898
	*** CtxServerAgent WAITS (from other contexts) on port 7898
	*** QActorUtils evh created it.unibo.robotcontext.Evh@36cddff5
	***  activateAkkaQActor qloop it.unibo.qloop.MsgHandle_Qloop
	*** QActorUtils qloop created it.unibo.qloop.MsgHandle_Qloop@fa12d
	*** SystemCreationActor ENDS THE SYSTEM akka://robotcontext testing=true
	*** QActorUtils qloop created it.unibo.qloop.MsgHandle_Qloop@fa12d
	***  activateAkkaQActor qloop_ctrl it.unibo.qloop.Qloop
 *** RobotSysKb setRobotBase= mock
 *** robotBase class= it.unibo.iot.executors.baseRobot.BaseRobot
	*** SystemCreationActor onReceive terminate(qloop_ctrl,true)
	*** SystemCreationActor stops qloop_ctrl testing=true
	*** SystemCreationActor terminateTheSystem 3/2
	*** QActorUtils qloop_ctrl created it.unibo.qloop.Qloop@34f56c0a
	*** QActorUtils qloop created it.unibo.qloop.MsgHandle_Qloop@fa12d
	*** QActorUtils robotcontext created it.unibo.qactors.akka.SystemCreationActor@698eedd6
	*** QActorUtils qloop created it.unibo.qloop.MsgHandle_Qloop@fa12d
' *** sensorTheory loaded FOR ROBOTS  *** '
[ERROR] [02/08/2017 18:06:18.810] [robotcontext-akka.actor.default-dispatcher-6] [akka://robotcontext/user/robotcontext] null
java.lang.NullPointerException
	at it.unibo.qactors.QActorUtils.getActorRefFromActorSelection(QActorUtils.java:407)
	at it.unibo.qactors.akka.SystemCreationActor.onReceive(SystemCreationActor.java:80)
	at akka.actor.UntypedActor$$anonfun$receive$1.applyOrElse(UntypedActor.scala:165)
	at akka.actor.Actor$class.aroundReceive(Actor.scala:484)
	at akka.actor.UntypedActor.aroundReceive(UntypedActor.scala:95)
	at akka.actor.ActorCell.receiveMessage(ActorCell.scala:526)
	at akka.actor.ActorCell.invoke(ActorCell.scala:495)
	at akka.dispatch.Mailbox.processMailbox(Mailbox.scala:257)
	at akka.dispatch.Mailbox.run(Mailbox.scala:224)
	at akka.dispatch.Mailbox.exec(Mailbox.scala:234)
	at scala.concurrent.forkjoin.ForkJoinTask.doExec(ForkJoinTask.java:260)
"Initializing the robot ... "
	at scala.concurrent.forkjoin.ForkJoinPool$WorkQueue.runTask(ForkJoinPool.java:1339)
	at scala.concurrent.forkjoin.ForkJoinPool.runWorker(ForkJoinPool.java:1979)
	at scala.concurrent.forkjoin.ForkJoinWorkerThread.run(ForkJoinWorkerThread.java:107)

This is a simulation ...
Can't use physical devices!
Led(off)
buzzer(off)
"checkStop"
"Going forward"
[INFO] [02/08/2017 18:06:18.983] [robotcontext-akka.actor.default-dispatcher-8] [akka://robotcontext/user/robotcontext/evlpa_robotcontext] Message [it.unibo.qactors.ActionRegisterMessage] from Actor[akka://robotcontext/user/robotcontext/evlpa_robotcontext#137181404] to Actor[akka://robotcontext/user/robotcontext/evlpa_robotcontext#137181404] was not delivered. [1] dead letters encountered. This logging can be turned off or adjusted with configuration settings 'akka.log-dead-letters' and 'akka.log-dead-letters-during-shutdown'.
[INFO] [02/08/2017 18:06:18.984] [robotcontext-akka.actor.default-dispatcher-8] [akka://robotcontext/user/robotcontext/evlpa_robotcontext] Message [it.unibo.qactors.ActionRegisterMessage] from Actor[akka://robotcontext/user/robotcontext/evlpa_robotcontext#137181404] to Actor[akka://robotcontext/user/robotcontext/evlpa_robotcontext#137181404] was not delivered. [2] dead letters encountered. This logging can be turned off or adjusted with configuration settings 'akka.log-dead-letters' and 'akka.log-dead-letters-during-shutdown'.
[INFO] [02/08/2017 18:06:18.984] [robotcontext-akka.actor.default-dispatcher-8] [akka://robotcontext/user/robotcontext/evlpa_robotcontext] Message [it.unibo.qactors.ActionRegisterMessage] from Actor[akka://robotcontext/user/robotcontext/evlpa_robotcontext#137181404] to Actor[akka://robotcontext/user/robotcontext/evlpa_robotcontext#137181404] was not delivered. [3] dead letters encountered. This logging can be turned off or adjusted with configuration settings 'akka.log-dead-letters' and 'akka.log-dead-letters-during-shutdown'.
MotorMock left 	 CW 	 40% ; MOTOR_SPEED_LOW
MotorMock right 	 CW 	 40% ; MOTOR_SPEED_LOW
[INFO] [02/08/2017 18:06:20.827] [robotcontext-akka.actor.default-dispatcher-5] [akka://robotcontext/user/robotcontext/evlpa_robotcontext] Message [it.unibo.qactors.platform.EventItem] from Actor[akka://robotcontext/deadLetters] to Actor[akka://robotcontext/user/robotcontext/evlpa_robotcontext#137181404] was not delivered. [4] dead letters encountered. This logging can be turned off or adjusted with configuration settings 'akka.log-dead-letters' and 'akka.log-dead-letters-during-shutdown'.
	*** QActorUtils qloop_ctrl created it.unibo.qloop.Qloop@34f56c0a
	*** QActorUtils qloop_ctrl created it.unibo.qloop.Qloop@34f56c0a
	*** QActorUtils qloop_ctrl created it.unibo.qloop.Qloop@34f56c0a
[INFO] [02/08/2017 18:06:23.832] [robotcontext-akka.actor.default-dispatcher-5] [akka://robotcontext/user/robotcontext/evlpa_robotcontext] Message [it.unibo.qactors.platform.EventItem] from Actor[akka://robotcontext/deadLetters] to Actor[akka://robotcontext/user/robotcontext/evlpa_robotcontext#137181404] was not delivered. [5] dead letters encountered. This logging can be turned off or adjusted with configuration settings 'akka.log-dead-letters' and 'akka.log-dead-letters-during-shutdown'.
	*** QActorUtils qloop_ctrl created it.unibo.qloop.Qloop@34f56c0a
	*** ActorUtils terminateTheQActorSystem robotcontext testing=true
	*** ActorUtils terminateTheQActorSystem sel=null
]]></system-out>
  <system-err><![CDATA[]]></system-err>
</testsuite>
