<?xml version="1.0" encoding="UTF-8"?>
<testsuite name="acco.finalDeliverable.robot.TestRobotRun4" tests="1" skipped="0" failures="0" errors="0" timestamp="2017-02-08T17:22:41" hostname="bzw" time="3.375">
  <properties/>
  <testcase name="testRun3" classname="acco.finalDeliverable.robot.TestRobotRun4" time="3.375"/>
  <system-out><![CDATA[SETTING UP JUNIT
	+++ context(robotcontext,localhost,'TCP','7898')
	+++ qactor(qloop,robotcontext,'it.unibo.qloop.MsgHandle_Qloop')
	+++ qactor(qloop_ctrl,robotcontext,'it.unibo.qloop.Qloop')
	ACTIVATING robotcontext ncores=4 port=7898 webDir=null testing=true
	QActorUtils activateAkkaSystem in progress ... robotcontext
	SYSTEM CREATOR=Actor[akka://robotcontext/user/robotcontext#1512634164]
	================================= robotcontext
	*** QActorUtils evlpa_robotcontext created it.unibo.qactors.platform.EventLoopActor@19bfe9f1
	*** QActorUtils evlpa_robotcontext created it.unibo.qactors.platform.EventLoopActor@19bfe9f1
	*** CtxServerAgent CREATED on port 7898
	*** CtxServerAgent WAITS (from other contexts) on port 7898
	*** QActorUtils evh created it.unibo.robotcontext.Evh@133954e3
	***  activateAkkaQActor qloop it.unibo.qloop.MsgHandle_Qloop
	*** QActorUtils qloop created it.unibo.qloop.MsgHandle_Qloop@3869878d
	***  activateAkkaQActor qloop_ctrl it.unibo.qloop.Qloop
 *** RobotSysKb setRobotBase= mock
 *** robotBase class= it.unibo.iot.executors.baseRobot.BaseRobot
	*** QActorUtils qloop created it.unibo.qloop.MsgHandle_Qloop@3869878d
' *** sensorTheory loaded FOR ROBOTS  *** '
"Initializing the robot ... "
	*** QActorUtils qloop_ctrl created it.unibo.qloop.Qloop@4ba66b27
	*** QActorUtils robotcontext created it.unibo.qactors.akka.SystemCreationActor@379131e3
	*** QActorUtils qloop created it.unibo.qloop.MsgHandle_Qloop@3869878d
This is a simulation ...
Can't use physical devices!
Led(off)
buzzer(off)
"checkStop"
"Going forward"
MotorMock left 	 CW 	 40% ; MOTOR_SPEED_LOW
MotorMock right 	 CW 	 40% ; MOTOR_SPEED_LOW
	*** QActorUtils qloop_ctrl created it.unibo.qloop.Qloop@4ba66b27
			||| emitter WILL EMIT event:obstacle after 0
			||| emitter EMITTED event:obstacle
MotorMock left 	 CCW 	 0% ; MOTOR_SPEED_LOW
MotorMock right 	 CCW 	 0% ; MOTOR_SPEED_LOW
"checkStop"
"Handle obstacle"
Led(true,false,false)
buzzer(on)
MotorMock left 	 CCW 	 0% ; MOTOR_SPEED_LOW
MotorMock right 	 CCW 	 0% ; MOTOR_SPEED_LOW
buzzer(off)
buzzer(on)
buzzer(off)
buzzer(on)
buzzer(off)
buzzer(on)
buzzer(off)
buzzer(on)
buzzer(off)
buzzer(on)
buzzer(off)
buzzer(on)
buzzer(off)
buzzer(on)
buzzer(off)
buzzer(on)
buzzer(off)
buzzer(on)
buzzer(off)
buzzer(on)
buzzer(off)
buzzer(on)
	*** QActorUtils qloop_ctrl created it.unibo.qloop.Qloop@4ba66b27
			||| emitter WILL EMIT event:inputcmd after 0
			||| emitter EMITTED event:inputcmd
	*** QActorUtils qloop_ctrl created it.unibo.qloop.Qloop@4ba66b27
buzzer(off)
buzzer(on)
"Handle command"
"Bye"
buzzer(off)
MotorMock left 	 CCW 	 0% ; MOTOR_SPEED_LOW
MotorMock right 	 CCW 	 0% ; MOTOR_SPEED_LOW
	%%% AsynchTimedAction bzz DONE  actionDone(bzz,997)
	*** QActorUtils qloop_ctrl created it.unibo.qloop.Qloop@4ba66b27
STOP
	*** QActorUtils qloop_ctrl created it.unibo.qloop.Qloop@4ba66b27
	*** ActorUtils terminateTheQActorSystem robotcontext testing=true
	*** SystemCreationActor onReceive terminate(qloop,true)
	*** SystemCreationActor stops qloop testing=true
	*** SystemCreationActor terminateTheSystem 1/2
	*** SystemCreationActor terminateTheSystem 2/2
	*** ActorUtils terminateTheQActorSystem sel=null
]]></system-out>
  <system-err><![CDATA[]]></system-err>
</testsuite>
